DATE,Qustions ,OPTIONA,OPTIONB,OPTIONC,OPTIOND,TYPE,Result,image URL,MP3 URL
2022-12-13 00:00:00,A+B,2,3,4,5,,A,,
,,,,,,,,,
,,,,,,,,,
,,,,,,,,,
,,,,,,,,,
,,,,,,,,,
,,,,,,,,,
,,,,,,,,,
,,,,,,,,,
,,,,,,,,,
,,,,,,,,,
,,,,,,,,,
,,,,,,,,,
,,,,,,,,,
,,,,,,,,,
